<?xml version="1.0" encoding="UTF-8" standalone="no"?>
<!-- Created with Inkscape (http://www.inkscape.org/) -->

<svg
   xmlns:dc="http://purl.org/dc/elements/1.1/"
   xmlns:cc="http://creativecommons.org/ns#"
   xmlns:rdf="http://www.w3.org/1999/02/22-rdf-syntax-ns#"
   xmlns:svg="http://www.w3.org/2000/svg"
   xmlns="http://www.w3.org/2000/svg"
   xmlns:sodipodi="http://sodipodi.sourceforge.net/DTD/sodipodi-0.dtd"
   xmlns:inkscape="http://www.inkscape.org/namespaces/inkscape"
   width="1165.748"
   height="492.51968"
   id="svg2"
   version="1.1"
   inkscape:version="0.48.4 r9939"
   sodipodi:docname="switch_layout.svg">
  <defs
     id="defs4" />
  <sodipodi:namedview
     id="base"
     pagecolor="#ffffff"
     bordercolor="#666666"
     borderopacity="1"
     inkscape:pageopacity="0.0"
     inkscape:pageshadow="2"
     inkscape:zoom="1"
     inkscape:cx="690.01252"
     inkscape:cy="144.20182"
     inkscape:document-units="px"
     inkscape:current-layer="layer1"
     showgrid="false"
     width="33.3mm"
     units="cm"
     inkscape:showpageshadow="false"
     inkscape:window-width="1920"
     inkscape:window-height="1080"
     inkscape:window-x="0"
     inkscape:window-y="0"
     inkscape:window-maximized="0"
     showborder="false" />
  <metadata
     id="metadata7">
    <rdf:RDF>
      <cc:Work
         rdf:about="">
        <dc:format>image/svg+xml</dc:format>
        <dc:type
           rdf:resource="http://purl.org/dc/dcmitype/StillImage" />
        <dc:title />
      </cc:Work>
    </rdf:RDF>
  </metadata>
  <g
     inkscape:groupmode="layer"
     id="layer2"
     inkscape:label="Layer"
     transform="translate(0,-2.3875e-5)" />
  <g
     inkscape:label="Layer 1"
     inkscape:groupmode="layer"
     id="layer1"
     transform="translate(0,-559.84267)">
    <rect
       style="fill:none;stroke:none"
       id="rect5191"
       width="1058.9492"
       height="385.72092"
       x="53.399414"
       y="613.24207" />
    <rect
       style="fill:none;stroke:#000000;stroke-width:0.495;stroke-miterlimit:4;stroke-opacity:1;stroke-dasharray:none"
       id="rect5189"
       width="49.111286"
       height="49.11129"
       x="61.369553"
       y="949.85406" />
    <rect
       style="fill:none;stroke:#000000;stroke-width:0.49501058;stroke-miterlimit:4;stroke-opacity:1;stroke-dasharray:none"
       id="rect5189-1"
       width="49.111286"
       height="49.11129"
       x="146.40894"
       y="949.854" />
    <rect
       style="fill:none;stroke:#000000;stroke-width:0.49501058;stroke-miterlimit:4;stroke-opacity:1;stroke-dasharray:none"
       id="rect5189-1-7"
       width="49.111286"
       height="49.11129"
       x="231.4483"
       y="949.854" />
    <rect
       style="fill:none;stroke:#000000;stroke-width:0.49501058;stroke-miterlimit:4;stroke-opacity:1;stroke-dasharray:none"
       id="rect5189-1-4-2"
       width="49.111286"
       height="49.11129"
       x="498.08215"
       y="949.854" />
    <rect
       style="fill:none;stroke:#000000;stroke-width:0.49501058;stroke-miterlimit:4;stroke-opacity:1;stroke-dasharray:none"
       id="rect5189-1-4-23"
       width="49.111286"
       height="49.11129"
       x="764.716"
       y="949.854" />
    <rect
       style="fill:none;stroke:#000000;stroke-width:0.49501058;stroke-miterlimit:4;stroke-opacity:1;stroke-dasharray:none"
       id="rect5189-1-4-1"
       width="49.111286"
       height="49.11129"
       x="849.75537"
       y="949.854" />
    <rect
       style="fill:none;stroke:#000000;stroke-width:0.49501058;stroke-miterlimit:4;stroke-opacity:1;stroke-dasharray:none"
       id="rect5189-1-4-0"
       width="49.111286"
       height="49.11129"
       x="928.59399"
       y="949.854" />
    <rect
       style="fill:none;stroke:#000000;stroke-width:0.49501058;stroke-miterlimit:4;stroke-opacity:1;stroke-dasharray:none"
       id="rect5189-1-4-49"
       width="49.111286"
       height="49.11129"
       x="1063.2396"
       y="949.854" />
    <rect
       style="fill:none;stroke:#000000;stroke-width:0.49501058;stroke-miterlimit:4;stroke-opacity:1;stroke-dasharray:none"
       id="rect5189-1-4-97"
       width="49.111286"
       height="49.11129"
       x="995.91687"
       y="949.854" />
    <rect
       style="fill:none;stroke:#000000;stroke-width:0.49501058;stroke-miterlimit:4;stroke-opacity:1;stroke-dasharray:none"
       id="rect5189-9"
       width="49.111286"
       height="49.11129"
       x="95.916794"
       y="882.53119" />
    <rect
       style="fill:none;stroke:#000000;stroke-width:0.49501058;stroke-miterlimit:4;stroke-opacity:1;stroke-dasharray:none"
       id="rect5189-1-7-2"
       width="49.111286"
       height="49.11129"
       x="205.75932"
       y="882.53113" />
    <rect
       style="fill:none;stroke:#000000;stroke-width:0.49501058;stroke-miterlimit:4;stroke-opacity:1;stroke-dasharray:none"
       id="rect5189-1-4-27"
       width="49.111286"
       height="49.11129"
       x="273.08215"
       y="882.53113" />
    <rect
       style="fill:none;stroke:#000000;stroke-width:0.49501058;stroke-miterlimit:4;stroke-opacity:1;stroke-dasharray:none"
       id="rect5189-1-4-3-7"
       width="49.111286"
       height="49.11129"
       x="340.405"
       y="882.53113" />
    <rect
       style="fill:none;stroke:#000000;stroke-width:0.49501058;stroke-miterlimit:4;stroke-opacity:1;stroke-dasharray:none"
       id="rect5189-1-4-4-0"
       width="49.111286"
       height="49.11129"
       x="407.72781"
       y="882.53113" />
    <rect
       style="fill:none;stroke:#000000;stroke-width:0.49501058;stroke-miterlimit:4;stroke-opacity:1;stroke-dasharray:none"
       id="rect5189-1-4-2-3"
       width="49.111286"
       height="49.11129"
       x="475.05066"
       y="882.53113" />
    <rect
       style="fill:none;stroke:#000000;stroke-width:0.49501058;stroke-miterlimit:4;stroke-opacity:1;stroke-dasharray:none"
       id="rect5189-1-4-26-1"
       width="49.111286"
       height="49.11129"
       x="542.37347"
       y="882.53113" />
    <rect
       style="fill:none;stroke:#000000;stroke-width:0.49501058;stroke-miterlimit:4;stroke-opacity:1;stroke-dasharray:none"
       id="rect5189-1-4-42-9"
       width="49.111286"
       height="49.11129"
       x="609.69635"
       y="882.53113" />
    <rect
       style="fill:none;stroke:#000000;stroke-width:0.49501058;stroke-miterlimit:4;stroke-opacity:1;stroke-dasharray:none"
       id="rect5189-1-4-9-1"
       width="49.111286"
       height="49.11129"
       x="677.01917"
       y="882.53113" />
    <rect
       style="fill:none;stroke:#000000;stroke-width:0.49501058;stroke-miterlimit:4;stroke-opacity:1;stroke-dasharray:none"
       id="rect5189-1-4-48-7"
       width="49.111286"
       height="49.11129"
       x="744.34198"
       y="882.53113" />
    <rect
       style="fill:none;stroke:#000000;stroke-width:0.49501058;stroke-miterlimit:4;stroke-opacity:1;stroke-dasharray:none"
       id="rect5189-1-4-1-7"
       width="49.111286"
       height="49.11129"
       x="811.66486"
       y="882.53113" />
    <rect
       style="fill:none;stroke:#000000;stroke-width:0.49501058;stroke-miterlimit:4;stroke-opacity:1;stroke-dasharray:none"
       id="rect5189-1-4-0-1"
       width="49.111286"
       height="49.11129"
       x="903.79083"
       y="882.53113" />
    <rect
       style="fill:none;stroke:#000000;stroke-width:0.49501058;stroke-miterlimit:4;stroke-opacity:1;stroke-dasharray:none"
       id="rect5189-1-4-49-9"
       width="49.111286"
       height="49.11129"
       x="1063.2396"
       y="882.53113" />
    <rect
       style="fill:none;stroke:#000000;stroke-width:0.49501058;stroke-miterlimit:4;stroke-opacity:1;stroke-dasharray:none"
       id="rect5189-1-4-97-3"
       width="49.111286"
       height="49.11129"
       x="995.91687"
       y="882.53113" />
    <rect
       style="fill:none;stroke:#000000;stroke-width:0.49501058;stroke-miterlimit:4;stroke-opacity:1;stroke-dasharray:none"
       id="rect5189-14"
       width="49.111286"
       height="49.11129"
       x="77.314438"
       y="815.20831" />
    <rect
       style="fill:none;stroke:#000000;stroke-width:0.49501058;stroke-miterlimit:4;stroke-opacity:1;stroke-dasharray:none"
       id="rect5189-1-7-9"
       width="49.111286"
       height="49.11129"
       x="168.5546"
       y="815.20825" />
    <rect
       style="fill:none;stroke:#000000;stroke-width:0.49501058;stroke-miterlimit:4;stroke-opacity:1;stroke-dasharray:none"
       id="rect5189-1-4-6"
       width="49.111286"
       height="49.11129"
       x="235.87744"
       y="815.20825" />
    <rect
       style="fill:none;stroke:#000000;stroke-width:0.49501058;stroke-miterlimit:4;stroke-opacity:1;stroke-dasharray:none"
       id="rect5189-1-4-3-4"
       width="49.111286"
       height="49.11129"
       x="303.20026"
       y="815.20825" />
    <rect
       style="fill:none;stroke:#000000;stroke-width:0.49501058;stroke-miterlimit:4;stroke-opacity:1;stroke-dasharray:none"
       id="rect5189-1-4-4-09"
       width="49.111286"
       height="49.11129"
       x="370.52313"
       y="815.20825" />
    <rect
       style="fill:none;stroke:#000000;stroke-width:0.49501058;stroke-miterlimit:4;stroke-opacity:1;stroke-dasharray:none"
       id="rect5189-1-4-2-0"
       width="49.111286"
       height="49.11129"
       x="437.84595"
       y="815.20825" />
    <rect
       style="fill:none;stroke:#000000;stroke-width:0.49501058;stroke-miterlimit:4;stroke-opacity:1;stroke-dasharray:none"
       id="rect5189-1-4-26-10"
       width="49.111286"
       height="49.11129"
       x="505.16876"
       y="815.20825" />
    <rect
       style="fill:none;stroke:#000000;stroke-width:0.49501058;stroke-miterlimit:4;stroke-opacity:1;stroke-dasharray:none"
       id="rect5189-1-4-42-8"
       width="49.111286"
       height="49.11129"
       x="572.49158"
       y="815.20825" />
    <rect
       style="fill:none;stroke:#000000;stroke-width:0.49501058;stroke-miterlimit:4;stroke-opacity:1;stroke-dasharray:none"
       id="rect5189-1-4-9-0"
       width="49.111286"
       height="49.11129"
       x="639.81445"
       y="815.20825" />
    <rect
       style="fill:none;stroke:#000000;stroke-width:0.49501058;stroke-miterlimit:4;stroke-opacity:1;stroke-dasharray:none"
       id="rect5189-1-4-48-9"
       width="49.111286"
       height="49.11129"
       x="707.13727"
       y="815.20825" />
    <rect
       style="fill:none;stroke:#000000;stroke-width:0.49501058;stroke-miterlimit:4;stroke-opacity:1;stroke-dasharray:none"
       id="rect5189-1-4-23-4"
       width="49.111286"
       height="49.11129"
       x="774.46008"
       y="815.20825" />
    <rect
       style="fill:none;stroke:#000000;stroke-width:0.49501058;stroke-miterlimit:4;stroke-opacity:1;stroke-dasharray:none"
       id="rect5189-1-4-1-2"
       width="49.111286"
       height="49.11129"
       x="841.78296"
       y="815.20825" />
    <rect
       style="fill:none;stroke:#000000;stroke-width:0.49501058;stroke-miterlimit:4;stroke-opacity:1;stroke-dasharray:none"
       id="rect5189-1-4-49-1"
       width="49.111286"
       height="49.11129"
       x="1063.2396"
       y="815.20825" />
    <rect
       style="fill:none;stroke:#000000;stroke-width:0.49501058;stroke-miterlimit:4;stroke-opacity:1;stroke-dasharray:none"
       id="rect5189-1-4-97-2"
       width="49.111286"
       height="49.11129"
       x="952.51135"
       y="815.20825" />
    <rect
       style="fill:none;stroke:#000000;stroke-width:0.49501058;stroke-miterlimit:4;stroke-opacity:1;stroke-dasharray:none"
       id="rect5189-5"
       width="49.111286"
       height="49.11129"
       x="69.341995"
       y="747.8855" />
    <rect
       style="fill:none;stroke:#000000;stroke-width:0.49501058;stroke-miterlimit:4;stroke-opacity:1;stroke-dasharray:none"
       id="rect5189-1-5"
       width="49.111286"
       height="49.11129"
       x="152.60971"
       y="747.88544" />
    <rect
       style="fill:none;stroke:#000000;stroke-width:0.49501058;stroke-miterlimit:4;stroke-opacity:1;stroke-dasharray:none"
       id="rect5189-1-7-0"
       width="49.111286"
       height="49.11129"
       x="219.93256"
       y="747.88544" />
    <rect
       style="fill:none;stroke:#000000;stroke-width:0.49501058;stroke-miterlimit:4;stroke-opacity:1;stroke-dasharray:none"
       id="rect5189-1-4-20"
       width="49.111286"
       height="49.11129"
       x="287.25537"
       y="747.88544" />
    <rect
       style="fill:none;stroke:#000000;stroke-width:0.49501058;stroke-miterlimit:4;stroke-opacity:1;stroke-dasharray:none"
       id="rect5189-1-4-3-76"
       width="49.111286"
       height="49.11129"
       x="354.57825"
       y="747.88544" />
    <rect
       style="fill:none;stroke:#000000;stroke-width:0.49501058;stroke-miterlimit:4;stroke-opacity:1;stroke-dasharray:none"
       id="rect5189-1-4-4-9"
       width="49.111286"
       height="49.11129"
       x="421.90106"
       y="747.88544" />
    <rect
       style="fill:none;stroke:#000000;stroke-width:0.49501058;stroke-miterlimit:4;stroke-opacity:1;stroke-dasharray:none"
       id="rect5189-1-4-2-1"
       width="49.111286"
       height="49.11129"
       x="489.22388"
       y="747.88544" />
    <rect
       style="fill:none;stroke:#000000;stroke-width:0.49501058;stroke-miterlimit:4;stroke-opacity:1;stroke-dasharray:none"
       id="rect5189-1-4-26-105"
       width="49.111286"
       height="49.11129"
       x="556.54669"
       y="747.88544" />
    <rect
       style="fill:none;stroke:#000000;stroke-width:0.49501058;stroke-miterlimit:4;stroke-opacity:1;stroke-dasharray:none"
       id="rect5189-1-4-42-1"
       width="49.111286"
       height="49.11129"
       x="623.86957"
       y="747.88544" />
    <rect
       style="fill:none;stroke:#000000;stroke-width:0.49501058;stroke-miterlimit:4;stroke-opacity:1;stroke-dasharray:none"
       id="rect5189-1-4-9-14"
       width="49.111286"
       height="49.11129"
       x="691.19238"
       y="747.88544" />
    <rect
       style="fill:none;stroke:#000000;stroke-width:0.49501058;stroke-miterlimit:4;stroke-opacity:1;stroke-dasharray:none"
       id="rect5189-1-4-48-71"
       width="49.111286"
       height="49.11129"
       x="758.5152"
       y="747.88544" />
    <rect
       style="fill:none;stroke:#000000;stroke-width:0.49501058;stroke-miterlimit:4;stroke-opacity:1;stroke-dasharray:none"
       id="rect5189-1-4-23-3"
       width="49.111286"
       height="49.11129"
       x="825.83807"
       y="747.88544" />
    <rect
       style="fill:none;stroke:#000000;stroke-width:0.49501058;stroke-miterlimit:4;stroke-opacity:1;stroke-dasharray:none"
       id="rect5189-1-4-1-8"
       width="49.111286"
       height="49.11129"
       x="893.16089"
       y="747.88544" />
    <rect
       style="fill:none;stroke:#000000;stroke-width:0.49501058;stroke-miterlimit:4;stroke-opacity:1;stroke-dasharray:none"
       id="rect5189-1-4-49-3"
       width="49.111286"
       height="49.11129"
       x="1063.2396"
       y="747.88544" />
    <rect
       style="fill:none;stroke:#000000;stroke-width:0.49501058;stroke-miterlimit:4;stroke-opacity:1;stroke-dasharray:none"
       id="rect5189-1-4-97-6"
       width="49.111286"
       height="49.11129"
       x="978.20032"
       y="747.88544" />
    <rect
       style="fill:none;stroke:#000000;stroke-width:0.49501058;stroke-miterlimit:4;stroke-opacity:1;stroke-dasharray:none"
       id="rect5189-2"
       width="49.111286"
       height="49.11129"
       x="53.39711"
       y="680.56268" />
    <rect
       style="fill:none;stroke:#000000;stroke-width:0.49501058;stroke-miterlimit:4;stroke-opacity:1;stroke-dasharray:none"
       id="rect5189-1-0"
       width="49.111286"
       height="49.11129"
       x="120.71994"
       y="680.56262" />
    <rect
       style="fill:none;stroke:#000000;stroke-width:0.49501058;stroke-miterlimit:4;stroke-opacity:1;stroke-dasharray:none"
       id="rect5189-1-7-7"
       width="49.111286"
       height="49.11129"
       x="188.04279"
       y="680.56262" />
    <rect
       style="fill:none;stroke:#000000;stroke-width:0.49501058;stroke-miterlimit:4;stroke-opacity:1;stroke-dasharray:none"
       id="rect5189-1-4-64"
       width="49.111286"
       height="49.11129"
       x="255.36563"
       y="680.56262" />
    <rect
       style="fill:none;stroke:#000000;stroke-width:0.49501058;stroke-miterlimit:4;stroke-opacity:1;stroke-dasharray:none"
       id="rect5189-1-4-3-43"
       width="49.111286"
       height="49.11129"
       x="322.68845"
       y="680.56262" />
    <rect
       style="fill:none;stroke:#000000;stroke-width:0.49501058;stroke-miterlimit:4;stroke-opacity:1;stroke-dasharray:none"
       id="rect5189-1-4-4-1"
       width="49.111286"
       height="49.11129"
       x="390.01129"
       y="680.56262" />
    <rect
       style="fill:none;stroke:#000000;stroke-width:0.49501058;stroke-miterlimit:4;stroke-opacity:1;stroke-dasharray:none"
       id="rect5189-1-4-2-9"
       width="49.111286"
       height="49.11129"
       x="457.33411"
       y="680.56262" />
    <rect
       style="fill:none;stroke:#000000;stroke-width:0.49501058;stroke-miterlimit:4;stroke-opacity:1;stroke-dasharray:none"
       id="rect5189-1-4-26-5"
       width="49.111286"
       height="49.11129"
       x="524.65698"
       y="680.56262" />
    <rect
       style="fill:none;stroke:#000000;stroke-width:0.49501058;stroke-miterlimit:4;stroke-opacity:1;stroke-dasharray:none"
       id="rect5189-1-4-42-5"
       width="49.111286"
       height="49.11129"
       x="591.9798"
       y="680.56262" />
    <rect
       style="fill:none;stroke:#000000;stroke-width:0.49501058;stroke-miterlimit:4;stroke-opacity:1;stroke-dasharray:none"
       id="rect5189-1-4-9-12"
       width="49.111286"
       height="49.11129"
       x="659.30261"
       y="680.56262" />
    <rect
       style="fill:none;stroke:#000000;stroke-width:0.49501058;stroke-miterlimit:4;stroke-opacity:1;stroke-dasharray:none"
       id="rect5189-1-4-48-1"
       width="49.111286"
       height="49.11129"
       x="726.62549"
       y="680.56262" />
    <rect
       style="fill:none;stroke:#000000;stroke-width:0.49501058;stroke-miterlimit:4;stroke-opacity:1;stroke-dasharray:none"
       id="rect5189-1-4-23-2"
       width="49.111286"
       height="49.11129"
       x="793.9483"
       y="680.56262" />
    <rect
       style="fill:none;stroke:#000000;stroke-width:0.49501058;stroke-miterlimit:4;stroke-opacity:1;stroke-dasharray:none"
       id="rect5189-1-4-1-5"
       width="49.111286"
       height="49.11129"
       x="861.27112"
       y="680.56262" />
    <rect
       style="fill:none;stroke:#000000;stroke-width:0.49501058;stroke-miterlimit:4;stroke-opacity:1;stroke-dasharray:none"
       id="rect5189-1-4-49-36"
       width="49.111286"
       height="49.11129"
       x="1063.2396"
       y="680.56262" />
    <rect
       style="fill:none;stroke:#000000;stroke-width:0.49501058;stroke-miterlimit:4;stroke-opacity:1;stroke-dasharray:none"
       id="rect5189-1-4-97-5"
       width="49.111286"
       height="49.11129"
       x="962.25537"
       y="680.56262" />
    <rect
       style="fill:none;stroke:#000000;stroke-width:0.49501058;stroke-miterlimit:4;stroke-opacity:1;stroke-dasharray:none"
       id="rect5189-3"
       width="49.111286"
       height="49.11129"
       x="53.39711"
       y="613.23981" />
    <rect
       style="fill:none;stroke:#000000;stroke-width:0.49501058;stroke-miterlimit:4;stroke-opacity:1;stroke-dasharray:none"
       id="rect5189-1-94"
       width="49.111286"
       height="49.11129"
       x="120.71994"
       y="613.23975" />
    <rect
       style="fill:none;stroke:#000000;stroke-width:0.49501058;stroke-miterlimit:4;stroke-opacity:1;stroke-dasharray:none"
       id="rect5189-1-7-3"
       width="49.111286"
       height="49.11129"
       x="188.04279"
       y="613.23975" />
    <rect
       style="fill:none;stroke:#000000;stroke-width:0.49501058;stroke-miterlimit:4;stroke-opacity:1;stroke-dasharray:none"
       id="rect5189-1-4-491"
       width="49.111286"
       height="49.11129"
       x="255.36563"
       y="613.23975" />
    <rect
       style="fill:none;stroke:#000000;stroke-width:0.49501058;stroke-miterlimit:4;stroke-opacity:1;stroke-dasharray:none"
       id="rect5189-1-4-3-1"
       width="49.111286"
       height="49.11129"
       x="322.68845"
       y="613.23975" />
    <rect
       style="fill:none;stroke:#000000;stroke-width:0.49501058;stroke-miterlimit:4;stroke-opacity:1;stroke-dasharray:none"
       id="rect5189-1-4-4-3"
       width="49.111286"
       height="49.11129"
       x="390.01129"
       y="613.23975" />
    <rect
       style="fill:none;stroke:#000000;stroke-width:0.49501058;stroke-miterlimit:4;stroke-opacity:1;stroke-dasharray:none"
       id="rect5189-1-4-2-4"
       width="49.111286"
       height="49.11129"
       x="457.33411"
       y="613.23975" />
    <rect
       style="fill:none;stroke:#000000;stroke-width:0.49501058;stroke-miterlimit:4;stroke-opacity:1;stroke-dasharray:none"
       id="rect5189-1-4-26-12"
       width="49.111286"
       height="49.11129"
       x="524.65698"
       y="613.23975" />
    <rect
       style="fill:none;stroke:#000000;stroke-width:0.49501058;stroke-miterlimit:4;stroke-opacity:1;stroke-dasharray:none"
       id="rect5189-1-4-42-2"
       width="49.111286"
       height="49.11129"
       x="591.9798"
       y="613.23975" />
    <rect
       style="fill:none;stroke:#000000;stroke-width:0.49501058;stroke-miterlimit:4;stroke-opacity:1;stroke-dasharray:none"
       id="rect5189-1-4-9-7"
       width="49.111286"
       height="49.11129"
       x="659.30261"
       y="613.23975" />
    <rect
       style="fill:none;stroke:#000000;stroke-width:0.49501058;stroke-miterlimit:4;stroke-opacity:1;stroke-dasharray:none"
       id="rect5189-1-4-48-6"
       width="49.111286"
       height="49.11129"
       x="726.62549"
       y="613.23975" />
    <rect
       style="fill:none;stroke:#000000;stroke-width:0.49501058;stroke-miterlimit:4;stroke-opacity:1;stroke-dasharray:none"
       id="rect5189-1-4-23-7"
       width="49.111286"
       height="49.11129"
       x="793.9483"
       y="613.23975" />
    <rect
       style="fill:none;stroke:#000000;stroke-width:0.49501058;stroke-miterlimit:4;stroke-opacity:1;stroke-dasharray:none"
       id="rect5189-1-4-1-88"
       width="49.111286"
       height="49.11129"
       x="861.27112"
       y="613.23975" />
    <rect
       style="fill:none;stroke:#000000;stroke-width:0.49501058;stroke-miterlimit:4;stroke-opacity:1;stroke-dasharray:none"
       id="rect5189-1-4-0-2"
       width="49.111286"
       height="49.11129"
       x="928.59399"
       y="613.23975" />
    <rect
       style="fill:none;stroke:#000000;stroke-width:0.49501058;stroke-miterlimit:4;stroke-opacity:1;stroke-dasharray:none"
       id="rect5189-1-4-49-4"
       width="49.111286"
       height="49.11129"
       x="1063.2396"
       y="613.23975" />
    <rect
       style="fill:none;stroke:#000000;stroke-width:0.49501058;stroke-miterlimit:4;stroke-opacity:1;stroke-dasharray:none"
       id="rect5189-1-4-97-1"
       width="49.111286"
       height="49.11129"
       x="995.91687"
       y="613.23975" />
    <rect
       style="fill:none;stroke:#000000;stroke-width:0.48884568;stroke-miterlimit:4;stroke-opacity:1;stroke-dasharray:none"
       id="rect5189-9-4"
       width="11.912729"
       height="49.117455"
       x="927.70502"
       y="815.20514" />
    <rect
       style="fill:none;stroke:#000000;stroke-width:0.48884568;stroke-miterlimit:4;stroke-opacity:1;stroke-dasharray:none"
       id="rect5189-9-4-0"
       width="11.912729"
       height="49.117455"
       x="71.110558"
       y="882.52802" />
    <rect
       style="fill:none;stroke:#000000;stroke-width:0.48884568;stroke-miterlimit:4;stroke-opacity:1;stroke-dasharray:none"
       id="rect5189-9-4-00"
       width="11.912729"
       height="49.117455"
       x="157.9216"
       y="882.52802" />
    <rect
       style="fill:none;stroke:#000000;stroke-width:0.48884568;stroke-miterlimit:4;stroke-opacity:1;stroke-dasharray:none"
       id="rect5189-9-4-005"
       width="11.912729"
       height="49.117455"
       x="338.63025"
       y="949.85083" />
    <rect
       style="fill:none;stroke:#000000;stroke-width:0.48884568;stroke-miterlimit:4;stroke-opacity:1;stroke-dasharray:none"
       id="rect5189-9-4-1"
       width="11.912729"
       height="49.117455"
       x="694.7326"
       y="949.85083" />
    <rect
       style="fill:none;stroke:#000000;stroke-width:0.48884568;stroke-miterlimit:4;stroke-opacity:1;stroke-dasharray:none"
       id="rect5189-9-4-13"
       width="11.912729"
       height="49.117455"
       x="1014.5161"
       y="815.20514" />
    <rect
       style="fill:none;stroke:#000000;stroke-width:0.49536815;stroke-miterlimit:4;stroke-opacity:1;stroke-dasharray:none"
       id="rect5189-1-4-26-1-2"
       width="1165.2527"
       height="492.02432"
       x="0.24768408"
       y="560.09033"
       rx="17.724356"
       ry="17.735069" />
    <path
       sodipodi:type="arc"
       style="fill:none;stroke:#000000;stroke-width:6.31007576;stroke-miterlimit:4;stroke-opacity:1;stroke-dasharray:none"
       id="path3090"
       sodipodi:cx="23"
       sodipodi:cy="50.519684"
       sodipodi:rx="59"
       sodipodi:ry="65"
       d="m 82,50.519684 a 59,65 0 1 1 -118,0 59,65 0 1 1 118,0 z"
       transform="matrix(0.08571702,0,0,0.07780468,21.060004,578.94351)" />
    <path
       sodipodi:type="arc"
       style="fill:none;stroke:#000000;stroke-width:6.31007576;stroke-miterlimit:4;stroke-opacity:1;stroke-dasharray:none"
       id="path3090-8"
       sodipodi:cx="23"
       sodipodi:cy="50.519684"
       sodipodi:rx="59"
       sodipodi:ry="65"
       d="m 82,50.519684 a 59,65 0 1 1 -118,0 59,65 0 1 1 118,0 z"
       transform="matrix(0.08571702,0,0,0.07780468,21.060005,1025.4001)" />
    <path
       sodipodi:type="arc"
       style="fill:none;stroke:#000000;stroke-width:6.31007576;stroke-miterlimit:4;stroke-opacity:1;stroke-dasharray:none"
       id="path3090-7"
       sodipodi:cx="23"
       sodipodi:cy="50.519684"
       sodipodi:rx="59"
       sodipodi:ry="65"
       d="m 82,50.519684 a 59,65 0 1 1 -118,0 59,65 0 1 1 118,0 z"
       transform="matrix(0.08571702,0,0,0.07780468,1140.745,578.94351)" />
    <path
       sodipodi:type="arc"
       style="fill:none;stroke:#000000;stroke-width:6.31007576;stroke-miterlimit:4;stroke-opacity:1;stroke-dasharray:none"
       id="path3090-9"
       sodipodi:cx="23"
       sodipodi:cy="50.519684"
       sodipodi:rx="59"
       sodipodi:ry="65"
       d="m 82,50.519684 a 59,65 0 1 1 -118,0 59,65 0 1 1 118,0 z"
       transform="matrix(0.08571702,0,0,0.07780468,1140.745,1025.4001)" />
  </g>
</svg>
